generator/results/pipelined/tb/pipelined_waveform.vcd
$date
	Sat Mar 07 07:18:20 2026
$end
$version
	Icarus Verilog
$end
$timescale
	1ps
$end
$scope module pipelined_memory_tb $end
$var reg 1 ! clk $end
$var reg 1 " write_en $end
$var real 1 # avg_latency $end
$var integer 32 $ end_time [31:0] $end
$var integer 32 % i [31:0] $end
$var integer 32 & latency_measurements [31:0] $end
$var integer 32 ' latency_total [31:0] $end
$var integer 32 ( op_count [31:0] $end
$var integer 32 ) read_count [31:0] $end
$var integer 32 * report_file [31:0] $end
$var integer 32 + start_time [31:0] $end
$var real 1 , throughput $end
$var integer 32 - write_count [31:0] $end
$scope module dut $end
$var wire 1 ! clk $end
$var wire 7 . req_addr [6:0] $end
$var wire 1 / req_valid $end
$var wire 8 0 req_wdata [7:0] $end
$var wire 1 1 req_write $end
$var wire 1 2 reset $end
$var wire 1 3 stage3_write $end
$var wire 8 4 stage3_wdata [7:0] $end
$var wire 1 5 stage3_valid $end
$var wire 1 6 stage3_bank $end
$var wire 7 7 stage3_addr [6:0] $end
$var wire 1 8 stage2_write $end
$var wire 8 9 stage2_wdata [7:0] $end
$var wire 1 : stage2_valid $end
$var wire 1 ; stage2_bank $end
$var wire 7 < stage2_addr [6:0] $end
$var wire 1 = stage1_write $end
$var wire 8 > stage1_wdata [7:0] $end
$var wire 1 ? stage1_valid $end
$var wire 7 @ stage1_addr [6:0] $end
$var wire 1 A resp_valid $end
$var wire 8 B resp_rdata [7:0] $end
$scope module arb_stage $end
$var wire 1 ! clk $end
$var wire 1 2 reset $end
$var wire 1 8 in_write $end
$var wire 8 C in_wdata [7:0] $end
$var wire 1 : in_valid $end
$var wire 1 ; in_bank $end
$var wire 7 D in_addr [6:0] $end
$var reg 7 E out_addr [6:0] $end
$var reg 1 6 out_bank $end
$var reg 1 5 out_valid $end
$var reg 8 F out_wdata [7:0] $end
$var reg 1 3 out_write $end
$upscope $end
$scope module decode_stage $end
$var wire 1 ! clk $end
$var wire 1 2 reset $end
$var wire 1 = in_write $end
$var wire 8 G in_wdata [7:0] $end
$var wire 1 ? in_valid $end
$var wire 7 H in_addr [6:0] $end
$var wire 1 I bank $end
$var reg 7 J out_addr [6:0] $end
$var reg 1 ; out_bank $end
$var reg 1 : out_valid $end
$var reg 8 K out_wdata [7:0] $end
$var reg 1 8 out_write $end
$scope module mapper $end
$var wire 1 I bank $end
$var wire 7 L addr [6:0] $end
$upscope $end
$upscope $end
$scope module mem_stage $end
$var wire 1 ! clk $end
$var wire 7 M in_addr [6:0] $end
$var wire 1 6 in_bank $end
$var wire 1 5 in_valid $end
$var wire 8 N in_wdata [7:0] $end
$var wire 1 3 in_write $end
$var wire 1 O rst $end
$var wire 8 P resp_rdata [7:0] $end
$var wire 16 Q bank_rdata [15:0] $end
$var wire 2 R bank_enable [1:0] $end
$var reg 1 A resp_valid $end
$scope begin bank_loop[0] $end
$scope module bank_inst $end
$var wire 7 S addr [6:0] $end
$var wire 1 ! clk $end
$var wire 1 T we $end
$var wire 8 U write_data [7:0] $end
$var reg 8 V read_data [7:0] $end
$upscope $end
$upscope $end
$scope begin bank_loop[1] $end
$scope module bank_inst $end
$var wire 7 W addr [6:0] $end
$var wire 1 ! clk $end
$var wire 1 X we $end
$var wire 8 Y write_data [7:0] $end
$var reg 8 Z read_data [7:0] $end
$upscope $end
$upscope $end
$scope module mux $end
$var wire 16 [ bank_data [15:0] $end
$var wire 1 6 bank_select $end
$var reg 8 \ read_data [7:0] $end
$var integer 32 ] i [31:0] $end
$upscope $end
$scope module selector $end
$var wire 1 6 bank_id $end
$var wire 1 5 enable $end
$var reg 2 ^ bank_enable [1:0] $end
$var integer 32 _ i [31:0] $end
$upscope $end
$upscope $end
$scope module req_stage $end
$var wire 1 ! clk $end
$var wire 7 ` req_addr [6:0] $end
$var wire 1 / req_valid $end
$var wire 8 a req_wdata [7:0] $end
$var wire 1 1 req_write $end
$var wire 1 2 reset $end
$var reg 7 b out_addr [6:0] $end
$var reg 1 ? out_valid $end
$var reg 8 c out_wdata [7:0] $end
$var reg 1 = out_write $end
$upscope $end
$upscope $end
$upscope $end
$enddefinitions $end
#0
$dumpvars
bx c
bx b
bz a
bz `
bx _
bx ^
bx ]
bx \
bx [
bx Z
bx Y
xX
bx W
bx V
bx U
xT
bx S
bx R
bx Q
bx P
zO
bx N
bx M
bx L
bx K
bx J
xI
bx H
bx G
bx F
bx E
bx D
bx C
bx B
xA
bx @
x?
bx >
x=
bx <
x;
x:
bx 9
x8
bx 7
x6
x5
bx 4
x3
z2
z1
bz 0
z/
bz .
b0 -
r0 ,
b0 +
b10000000000000000000000000000011 *
b0 )
b0 (
b0 '
b0 &
b1 %
bx $
r0 #
1"
0!
$end
#5000
zI
bz >
bz G
bz c
bz @
bz H
bz L
bz b
z=
z?
b1 )
b1 &
b10 (
b1 -
b1 %
1!
#10000
0!
0"
b1 %
#15000
z;
bz 9
bz C
bz K
bz <
bz D
bz J
z8
z:
b11 (
b10 )
b10 &
b1010 '
b1 %
1!
#20000
0!
#25000
0X
0T
b10 ]
b0 B
b0 P
b0 \
b0 R
b0 ^
z6
bz 4
bz F
bz N
bz U
bz Y
bz 7
bz E
bz M
bz S
bz W
z3
z5
b100 (
b11 )
b11 &
b11110 '
b1 %
1!
#30000
0!
b1 %
#35000
zA
b101 (
b100 )
b100 &
b1 %
1!
#40000
0!
1"
b1 %
#45000
b101 )
b101 &
b111 (
b10 -
b1 %
1!
#50000
0!
b1 %
#55000
b110 )
b110 &
b1001 (
b11 -
b1 %
1!
#60000
0!
b1 %
#65000
b111 )
b111 &
b1011 (
b100 -
b1 %
1!
#70000
0!
b1 %
#75000
b1000 )
b1000 &
b1101 (
b101 -
b1 %
1!
#80000
0!
0"
b1 %
#85000
b1110 (
b1001 )
b1001 &
b1 %
1!
#90000
0!
b1 %
#95000
b1111 (
b1010 )
b1010 &
b1 %
1!
#100000
0!
1"
b1 %
#105000
b1011 )
b1011 &
b10001 (
b110 -
b1 %
1!
#110000
0!
0"
b1 %
#115000
b10010 (
b1100 )
b1100 &
b1 %
1!
#120000
0!
b1 %
#125000
b10011 (
b1101 )
b1101 &
b1 %
1!
#130000
0!
1"
b1 %
#135000
b1110 )
b1110 &
b10101 (
b111 -
b1 %
1!
#140000
0!
b1 %
#145000
b1111 )
b1111 &
b10111 (
b1000 -
b1 %
1!
#150000
0!
0"
b1 %
#155000
b11000 (
b10000 )
b10000 &
b1 %
1!
#160000
0!
1"
b1 %
#165000
b10001 )
b10001 &
b11010 (
b1001 -
b1 %
1!
#170000
0!
b1 %
#175000
b10010 )
b10010 &
b11100 (
b1010 -
b1 %
1!
#180000
0!
0"
b1 %
#185000
b11101 (
b10011 )
b10011 &
b1 %
1!
#190000
0!
1"
b1 %
#195000
b10100 )
b10100 &
b11111 (
b1011 -
b1 %
1!
#200000
0!
0"
b1 %
#205000
b100000 (
b10101 )
b10101 &
b1 %
1!
#210000
0!
b1 %
#215000
b100001 (
b10110 )
b10110 &
b1 %
1!
#220000
0!
b1 %
#225000
b100010 (
b10111 )
b10111 &
b1 %
1!
#230000
0!
1"
b1 %
#235000
b11000 )
b11000 &
b100100 (
b1100 -
b1 %
1!
#240000
0!
b1 %
#245000
b11001 )
b11001 &
b100110 (
b1101 -
b1 %
1!
#250000
0!
0"
b1 %
#255000
b100111 (
b11010 )
b11010 &
b1 %
1!
#260000
0!
b1 %
#265000
b101000 (
b11011 )
b11011 &
b1 %
1!
#270000
0!
1"
b1 %
#275000
b11100 )
b11100 &
b101010 (
b1110 -
b1 %
1!
#280000
0!
b1 %
#285000
b11101 )
b11101 &
b101100 (
b1111 -
b1 %
1!
#290000
0!
0"
b1 %
#295000
b101101 (
b11110 )
b11110 &
b1 %
1!
#300000
0!
b1 %
#305000
b101110 (
b11111 )
b11111 &
b1 %
1!
#310000
0!
1"
b1 %
#315000
b100000 )
b100000 &
b110000 (
b10000 -
b1 %
1!
#320000
0!
b1 %
#325000
b100001 )
b100001 &
b110010 (
b10001 -
b1 %
1!
#330000
0!
b1 %
#335000
b100010 )
b100010 &
b110100 (
b10010 -
b1 %
1!
#340000
0!
b1 %
#345000
b100011 )
b100011 &
b110110 (
b10011 -
b1 %
1!
#350000
0!
0"
b1 %
#355000
b110111 (
b100100 )
b100100 &
b1 %
1!
#360000
0!
b1 %
#365000
b111000 (
b100101 )
b100101 &
b1 %
1!
#370000
0!
b1 %
#375000
b111001 (
b100110 )
b100110 &
b1 %
1!
#380000
0!
b1 %
#385000
b111010 (
b100111 )
b100111 &
b1 %
1!
#390000
0!
b1 %
#395000
b111011 (
b101000 )
b101000 &
b1 %
1!
#400000
0!
1"
b1 %
#405000
b101001 )
b101001 &
b111101 (
b10100 -
b1 %
1!
#410000
0!
0"
b1 %
#415000
b111110 (
b101010 )
b101010 &
b1 %
1!
#420000
0!
b1 %
#425000
b111111 (
b101011 )
b101011 &
b1 %
1!
#430000
0!
b1 %
#435000
b1000000 (
b101100 )
b101100 &
b1 %
1!
#440000
0!
1"
b1 %
#445000
b101101 )
b101101 &
b1000010 (
b10101 -
b1 %
1!
#450000
0!
b1 %
#455000
b101110 )
b101110 &
b1000100 (
b10110 -
b1 %
1!
#460000
0!
0"
b1 %
#465000
b1000101 (
b101111 )
b101111 &
b1 %
1!
#470000
0!
1"
b1 %
#475000
b110000 )
b110000 &
b1000111 (
b10111 -
b1 %
1!
#480000
0!
b1 %
#485000
b110001 )
b110001 &
b1001001 (
b11000 -
b1 %
1!
#490000
0!
0"
b1 %
#495000
b1001010 (
b110010 )
b110010 &
b1 %
1!
#500000
0!
1"
b1 %
#505000
b110011 )
b110011 &
b1001100 (
b11001 -
b1 %
1!
#510000
0!
0"
b1 %
#515000
b1001101 (
b110100 )
b110100 &
b1 %
1!
#520000
0!
b1 %
#525000
b1001110 (
b110101 )
b110101 &
b1 %
1!
#530000
0!
r1.471698113207547 ,
r0.5660377358490566 #
b1000010010 $
#535000
b1001111 (
b110110 )
b110110 &
b1 %
1!
#540000
0!
#545000
b1010000 (
b110111 )
b110111 &
b1 %
1!
#550000
0!
#555000
b1010001 (
b111000 )
b111000 &
b1 %
1!
#560000
0!
#565000
b1010010 (
b111001 )
b111001 &
b1 %
1!
#570000
0!
#575000
b1010011 (
b111010 )
b111010 &
b1 %
1!
